{
    "general": {
        "prev_btn": "前へ",
        "next_btn": "次へ",
        "exit_btn": "終了",
        "play_btn": "プレイ",
        "play_again_btn": "もう一度プレイ",
        "done_btn": "終了",
        "back_btn": "戻る",
        "skip_btn": "スキップ",
        "try_again_btn": "再挑戦",
        "try_another_game_btn": "他のゲームをプレイ",
        "look_inside_btn": "詳細を見る",
        "start_btn": "開始",
        "restart_btn": "再開",
        "confirm_btn": "確定"
    },

    "views": {

        "selection": {
            "vehicle": {
                "cta_html": "マシンを<br>選択"
            },

            "games": {
                "cta_html": "アクティビティを<br>選択",
                "games": {
                    "key_moments": {
                        "name_html": "Key<br>moments",
                        "text_html": "レースの時間です！<br>回転数をコントロールし<br>ライバルを圧倒する<br>スタートを切りましょう。"
                    },

                    "in_the_zone": {
                        "name_html": "In the<br>zone",
                        "text_html": "コーナーに<br>差し掛かっています。<br>的確な判断で<br>勢いよくコーナーを抜けましょう。"
                    },

                    "tech_ray": {
                        "name_html": "Tech<br>ray",
                        "text_html": "インタラクティブなツアーで<br>マシンに搭載されている<br>あらゆる技術を確認しましょう。"
                    }
                }
            }
        },

        "keymoments": {
            "motor": {
                "intro": {
                    "title": "Key moments",
                    "text_html": "圧倒的パフォーマンスに必要なのは着実にステップを踏むことです。"
                },
                "game": {
                    "header_html": "レースを制覇する方法を知っていますか？<br>最短記録で以下のステップを正しい順序に並べましょう。",

                    "step_1": {
                        "bike_text_html": "数日間バイクに乗り、感覚をつかむ。",
                        "car_text_html": "数日間マシンに乗り、ドライビング感覚をつかむ。",
                        "label": "練習"
                    },

                    "step_2": {
                        "text_html": "タイヤを温め首位を目指そう。",
                        "label": "予選"
                    },

                    "step_3": {
                        "text_html": "チームと協力し完璧なパフォーマンスを発揮しよう。",
                        "label": "レース"
                    },

                    "step_4": {
                        "text_html": "レース全体の流れに集中しよう。",
                        "label": "チャンピオンシップ"
                    },

                    "modal": {

                        "top_result": {
                            "title_html": "見事な<br>パフォーマンスです！",
                            "subtitle_html": "表彰台に上がれたか結果を確認しましょう。"
                        },

                        "good_result": {
                            "title_html": "ナイストライ！",
                            "subtitle_html": "チャンピオンは常に<br>上を目指します。"
                        },

                        "mid_result": {
                            "title_html": "なかなかです！",
                            "subtitle_html": "絶対にあきらめないでください。"
                        },

                        "low_result": {
                            "title_html": "もっと努力が必要です！",
                            "subtitle_html": "まだまだウォーミングアップでしたね"
                        },

                        "timesup": {
                            "title_html": "時間切れ",
                            "subtitle_html": "スピードがすべてです。"
                        },

                        "your_score": "スコア",
                        "your_time": "タイム",
                        "total_score": "合計スコア"
                    }
                }
            },

            "product": {
                "intro": {
                    "text_html": "加熱式たばこによる<br>究極の体験を<br>実現するための<br>正しいステップを選択しましょう。",
                    "warning_html": "IQOSに完全に切り替えた場合、紙巻きたばこを吸い続けた場合に比べ、健康へのリスク低減が見込まれます。これはIQOSにリスクがなく安全であることを意味するものではありません。本製品の未成年者への販売は禁止されています。"
                },

                "game": {
                    "header_html": "煙が出ないたばこを利用したいなら…<br>以下の画像を正しい順序に並べましょう。",
                    "step_1": {
                        "text_html": "たばこスティックを差し込み、IQOSの電源を入れます",
                        "label": "Step 01"
                    },
                    "step_2": {
                        "text_html": "ヒートコントロールテクノロジーが中心部からたばこを加熱し、たばこ本来の味わいをお届けします。",
                        "label": "Step 02"
                    },

                    "step_3": {
                        "text_html": "煙のニオイが少なく、灰のない時間をお楽しみください。",
                        "label": "Step 03"
                    },

                    "step_4": {
                        "text_html": "灰を気にする必要なく、たばこスティックを取り出せます。",
                        "label": "Step 04"
                    },

                    "feedback": {
                        "success": {
                            "title": "お見事！",
                            "subtitle_html": "大正解",
                            "text_html": "煙、灰、たばこ特有のニオイが少なく<br>たばこ本来の味を味わうことができます。"
                        },

                        "error": {
                            "title": "残念！",
                            "subtitle_html": "IQOSはたばこ本来の味わいを<br>提供できません。",
                            "answer_btn": "正解を見る"
                        }
                    }
                },

                "video": {
                    "header_html": "革新的なIQOSシステムの詳細",
                    "url": "resources/keymoments/product/video/video_JP.mp4",
                    "poster": "resources/keymoments/product/video/video_poster.png"
                },

                "video_outro": {
                    "header_html": "IQOSはスイス生まれ最先端テクノロジーが搭載された加熱式たばこです。その驚異的な性能を発揮させるため、すべてのパーツが精巧に作り込まれています。"
                },

                "final": {
                    "cta_html": "IQOSはスイス生まれの最先端テクノロジーです。<br>加熱式たばこの驚異的な性能を発揮させるため、<br>すべてのパーツが精巧に作り込まれています。"
                }
            }
        },

        "inthezone": {
            "motor": {
                "intro": {
                    "title": "In the zone",
                    "text_html": "優れたパフォーマンスは狂いのない精度の賜物。<br>圧倒的スタートを切れるか自分のスキルを試してみましょう。"
                },

                "game": {

                    "header_html": "回転数をコントロールし、針をグリーンの範囲内にキープしましょう。",

                    "modal": {

                        "low_result": {
                            "title": "遅すぎます"
                        },

                        "good_result": {
                            "title": "いいスタートです",
                            "subtitle": "精度：{$n}%"
                        },

                        "perfect_result": {
                            "title": "完璧なスタート",
                            "subtitle": "精度：{$n}%"
                        },

                        "out_result": {
                            "title": "コントロールに失敗"
                        }
                    }
                }
            },

            "product": {
                "intro": {
                    "text_html": "ヒートコントロールテクノロジーでIQOSに最適な温度を",
                    "btn": "加熱",
                    "warning_html": "IQOSに完全に切り替えた場合、紙巻きたばこを吸い続けた場合に比べ、健康へのリスク低減が見込まれます。これはIQOSにリスクがなく安全であることを意味するものではありません。本製品の未成年者への販売は禁止されています。"
                },

                "game": {
                    "header_html": "加熱式たばこの本格的な味わいを発揮させましょう。<br>針が350°Cに達したらIQOSのボタンを押してください。",
                    "perfect_temperature_html": "完璧な<br>温度",

                    "modal": {
                        "too_cold": "温度が低すぎます！",
                        "too_hot": "温度が高すぎます！IQOSはたばこを燃やすのではなく加熱します。",
                        "perfect": "完璧な温度に加熱されました！"
                    }
                },

                "outro": {
                    "header_html": "IQOSヒートコントロールテクノロジーは、<br>たばこを燃焼せずに吸い始めから吸い終わりまで<br>一貫した体験を提供するため、温度を正確にコントロールします。"
                }
            }
        },

        "techray": {
            "motor": {
                "intro": {
                    "title": "Tech Ray",
                    "f1_text_html": "もうひとつの最先端デザインを確認しましょう。<br>IQOS同様、レースマシンも心臓部に搭載された<br>ライバルを圧倒する技術で限界を押し上げます。",
                    "motogp_text_html": "もうひとつの最先端デザインを確認しましょう。<br>IQOS同様、レーシングバイクも心臓部に搭載された<br>ライバルを圧倒する技術で限界を押し上げます。"
                },

                "game": {
                    "header_html": "各ポイントをタップして詳細を確認しましょう。",

                    "hotspots": {

                        "car": {
                            "engine": {
                                "title_html": "エンジン",
                                "text_html": "従来のターボチャージャー搭載パワーユニットとエネルギー回生システムを一体化したハイブリッドエンジン。廃エネルギーをドライバーが好きな時に使用できる余剰馬力に変換します。"
                            },
                            "halo": {
                                "title_html": "ハロ",
                                "text_html": "2018年に導入された頭部保護デバイス。重量約10kgのチタン製単一構造で、時速240kmで走行中の衝撃に耐えます。"
                            },
                            "brakes": {
                                "title_html": "ブレーキ",
                                "text_html": "マシンはロードカーと同じブレーキ原理を使用していますが、はるかに大量の熱に対応しなければなりません。事実、ブレーキディスクが約1200°Cに達し、赤熱するのは日常茶飯事です。"
                            },
                            "suspension": {
                                "title_html": "サスペンション",
                                "text_html": "マシンには、プッシュロッドまたはプルロッドサスペンションのいずれかが装備されています。それぞれに異なるメリットと需要があり、どちらを選ぶかはドライバーの好みや要件によります。"
                            },
                            "tyres": {
                                "title_html": "タイヤ",
                                "text_html": "スリックタイヤには「ハイパーソフト」から「スーパーハード」まで7種類あります。コンパウンドがソフトなほど、グリップ性能が高く、デグラデーションが起こりやすくなります。適切なタイミングで適切なタイヤを選択することが、優勝を目指すチームにとって鍵となります。"
                            },
                            "front_wing": {
                                "title_html": "フロントウイング",
                                "text_html": "極めて重要なパーツ。ダウンフォースを生むことが主な機能で、マシン重量の2倍に相当する総ダウンフォースの約25～40%に寄与しています。"
                            }
                        },

                        "bike": {
                            "brakes": {
                                "title_html": "ブレーキ",
                                "text_html": "大幅に改良されたカーボンディスクを使用しています。ただし、適切な温度に達しない限り効果は発揮されません。通常はウォーミングアップラップで適切な温度まで温度が上げられます。"
                            },
                            "suspension": {
                                "title_html": "サスペンション",
                                "text_html": "リアショックとフロントフォークで構成されています。構成部品であるスプリングとダンピングは、ライダーのスタイルに最適な状態になるように手が加えられます。"
                            },
                            "clutch_lever": {
                                "title_html": "クラッチレバー",
                                "text_html": "ダウンタイムを制限することでパワーを上げ、ギアチェンジを行う際に安定性を強化するシームレスギアボックスをアクティベートします。"
                            },
                            "swingarm": {
                                "title_html": "スイングアーム",
                                "text_html": "サスペンションをサポートするシャーシの一部。グリップ、トラクション、安定性を最適化するため、通常バイクをセットアップ時に調整されます。"
                            },
                            "engine": {
                                "title_html": "エンジン",
                                "text_html": "エンジンの出力は1000ccに制限されています。最大4気筒。レースシーズン開幕から終了までの期間、選手が使用できるエンジンの数は7基に制限されています。"
                            },
                            "exhaust": {
                                "title_html": "エキゾースト",
                                "text_html": "次の燃焼サイクル前に排ガスを気筒から完全に排気します。軽量かつ耐久性に優れた超合金材製。"
                            }
                        }
                    }
                }
            },

            "product": {
                "intro": {
                    "title": "Tech Ray",
                    "text_html": "IQOSヒートコントロールテクノロジーは、たばこ本来の味わいを実現するため<br>たばこを燃やす代わりに加熱する<br>革新的なシステムです。"
                },

                "game": {

                    "header_html": "各ポイントをタップして詳細を確認しましょう。",

                    "hotspots": {

                        "cap": {
                            "title_html": "キャップ",
                            "text_html": "ホルダーのカバー。様々なカラーをご用意しています。自分のスタイルに合わせてIQOSをカスタマイズできます。"
                        },

                        "heater_blade": {
                            "title_html": "加熱ブレード",
                            "text_html": "独自の加熱ブレード。中心部からたばこを加熱し、たばこの本格的な味わいをお届けします。"
                        },

                        "heating_button": {
                            "title_html": "加熱ボタン",
                            "text_html": "たばこスティックの加熱を開始するボタン。ライトが白色に点滅し、バイブレーターが動作するまで電源ボタンを長押ししてください。白色のライトが点灯に変わればたばこスティックをお楽しみいただけます。"
                        },

                        "charging_contact": {
                            "title_html": "バッテリー接触面",
                            "text_html": "ポケットチャージャーからホルダーへ電力を送り込む接触面。通常最長4分で充電が完了します。"
                        },

                        "lid_opening_button": {
                            "title_html": "チャージャー開閉ボタン",
                            "text_html": "スムーズな開閉を可能にするボタン。このボタンを使用してIQOSホルダーにアクセスできます。"
                        },

                        "hold_battery_status": {
                            "title_html": "ホルダー充電状態",
                            "text_html": "ホルダーの状態を示すライト。白色ライトが点灯している場合、充電が完了しているためすぐにお使いいただけます。"
                        },

                        "bluetooth_button": {
                            "title_html": "Bluetooth™ボタン",
                            "text_html": "お使いのIQOSと専用アプリ「My IQOS」を同期する際に使用します。専用アプリでは、たばこからIQOSへの切り替え状況の管理、役立つ情報の確認、オンラインストアへのアクセスが可能です。"
                        },

                        "charger_battery_status": {
                            "title_html": "ポケットチャージャー充電状態",
                            "text_html": "ポケットチャージャーの充電状態をわかりやすく表示します。点滅している場合は充電中で、消灯している場合はスタンバイ状態です。"
                        },

                        "power_button": {
                            "title_html": "電源ボタン",
                            "text_html": "ポケットチャージャーに差し込み、押すとホルダーの充電が始まります。"
                        }
                    }
                }
            }
        },

        "leaderboard": {
            "username": {
                "cta_html": "名前を入力して<br>ランキングを確認しましょう",
                "your_name_label": "名前"
            },

            "list": {
                "header_html": "スコアボード",
                "empty_list_message": "プレイ記録がありません。",
                "table": {
                    "position_label": "Pos",
                    "name_label": "名前",
                    "total_score_label_html": "合計<br>スコア"
                }
            }
        }
    }
}
